%YAML 1.1
%TAG !u! tag:unity3d.com,2011:
--- !u!74 &7400000
AnimationClip:
  m_ObjectHideFlags: 0
  m_CorrespondingSourceObject: {fileID: 0}
  m_PrefabInstance: {fileID: 0}
  m_PrefabAsset: {fileID: 0}
  m_Name: player_2_andando
  serializedVersion: 6
  m_Legacy: 0
  m_Compressed: 0
  m_UseHighQualityCurve: 1
  m_RotationCurves: []
  m_CompressedRotationCurves: []
  m_EulerCurves: []
  m_PositionCurves: []
  m_ScaleCurves: []
  m_FloatCurves: []
  m_PPtrCurves:
  - curve:
    - time: 0
      value: {fileID: 21300000, guid: 4c07c3d233435a6449a2f1592afef749, type: 3}
    - time: 0.1
      value: {fileID: 21300000, guid: 96afb5f5c963f0041a95e7bd7ca992f8, type: 3}
    - time: 0.2
      value: {fileID: 21300000, guid: abfb1d756c8bf0a4fa979f51a569909f, type: 3}
    - time: 0.3
      value: {fileID: 21300000, guid: 41a7650f5083d894c98b272f58ed06b4, type: 3}
    - time: 0.4
      value: {fileID: 21300000, guid: 466a1c49e41e18b4281c9c7ff956a26f, type: 3}
    - time: 0.5
      value: {fileID: 21300000, guid: 6cb5ee2644a2dfa4f8f344f82adeee73, type: 3}
    - time: 0.6
      value: {fileID: 21300000, guid: 1bb6e6a004b06fc41ba110137bbc4ed6, type: 3}
    - time: 0.7
      value: {fileID: 21300000, guid: f0f25c47c6171e84eb45abf6a57c9d6e, type: 3}
    - time: 0.8
      value: {fileID: 21300000, guid: 7c585d81ab945094facccd22cd370b35, type: 3}
    - time: 0.9
      value: {fileID: 21300000, guid: ef78e0c4cfce3ed428dcaecd66a8797e, type: 3}
    attribute: m_Sprite
    path: 
    classID: 212
    script: {fileID: 0}
  m_SampleRate: 10
  m_WrapMode: 0
  m_Bounds:
    m_Center: {x: 0, y: 0, z: 0}
    m_Extent: {x: 0, y: 0, z: 0}
  m_ClipBindingConstant:
    genericBindings:
    - serializedVersion: 2
      path: 0
      attribute: 0
      script: {fileID: 0}
      typeID: 212
      customType: 23
      isPPtrCurve: 1
    pptrCurveMapping:
    - {fileID: 21300000, guid: 4c07c3d233435a6449a2f1592afef749, type: 3}
    - {fileID: 21300000, guid: 96afb5f5c963f0041a95e7bd7ca992f8, type: 3}
    - {fileID: 21300000, guid: abfb1d756c8bf0a4fa979f51a569909f, type: 3}
    - {fileID: 21300000, guid: 41a7650f5083d894c98b272f58ed06b4, type: 3}
    - {fileID: 21300000, guid: 466a1c49e41e18b4281c9c7ff956a26f, type: 3}
    - {fileID: 21300000, guid: 6cb5ee2644a2dfa4f8f344f82adeee73, type: 3}
    - {fileID: 21300000, guid: 1bb6e6a004b06fc41ba110137bbc4ed6, type: 3}
    - {fileID: 21300000, guid: f0f25c47c6171e84eb45abf6a57c9d6e, type: 3}
    - {fileID: 21300000, guid: 7c585d81ab945094facccd22cd370b35, type: 3}
    - {fileID: 21300000, guid: ef78e0c4cfce3ed428dcaecd66a8797e, type: 3}
  m_AnimationClipSettings:
    serializedVersion: 2
    m_AdditiveReferencePoseClip: {fileID: 0}
    m_AdditiveReferencePoseTime: 0
    m_StartTime: 0
    m_StopTime: 1
    m_OrientationOffsetY: 0
    m_Level: 0
    m_CycleOffset: 0
    m_HasAdditiveReferencePose: 0
    m_LoopTime: 1
    m_LoopBlend: 0
    m_LoopBlendOrientation: 0
    m_LoopBlendPositionY: 0
    m_LoopBlendPositionXZ: 0
    m_KeepOriginalOrientation: 0
    m_KeepOriginalPositionY: 1
    m_KeepOriginalPositionXZ: 0
    m_HeightFromFeet: 0
    m_Mirror: 0
  m_EditorCurves: []
  m_EulerEditorCurves: []
  m_HasGenericRootTransform: 0
  m_HasMotionFloatCurves: 0
  m_Events: []
